R4DEV 2020
…
By disaggregateing all text we can now do some analysis of the frequency of the words within. The first thing we do is count the frequency that each words appears. Well use count() command to, duh, count the frequency of each word, and then arrange() to sort them in decreasing order.

library(tidytext)
library(tidyverse)

#Starting from the tokenized Il Principe
il_principe %>%
  tidytext::unnest_tokens(word, text) %>%
  #Using the command count we, duh, count how many times each word in the text appears
  dplyr::count(word) %>%
  #And rearrange it based on the frequency of each word
  dplyr::arrange(desc(n))

## # A tibble: 5,232 x 2
##    word      n
##    <chr> <int>
##  1 the    2930
##  2 to     2036
##  3 and    1868
##  4 of     1683
##  5 in      937
##  6 he      919
##  7 that    730
##  8 a       725
##  9 his     640
## 10 it      571
## # ... with 5,222 more rows
…
#Save stop words that we want to exclude from the analysis
stop <- data("stop_words")

#Starting with the tokenized Il Principe
il_principe %>%
  tidytext::unnest_tokens(word, text) %>%
  #Here we use the command anti_join, which excludes all words that are common in our database of Il Principe and the stop words
  dplyr::anti_join(stop_words) %>%
  #And repeat the process of counting and sorting
  dplyr::count(word) %>%
  dplyr::arrange(desc(n))

## # A tibble: 4,729 x 2
##    word            n
##    <chr>       <int>
##  1 prince        217
##  2 castruccio    136
##  3 people        112
##  4 time           96
##  5 duke           88
##  6 arms           69
##  7 king           69
##  8 fortune        62
##  9 florentines    61
## 10 princes        59
## # ... with 4,719 more rows
…
